{
  "status" : true,
  "message" : { 
  "code" : "{{#? message.code}}",
  "text" : "{{#? message.text}}"
},  "data" : {
    "{{#each bitacora }}" : {
    "id" : "{{#? this.id}}",
    "fechaMovimiento" : "{{#? this.fechaMovimiento}}",
    "descripcion" :"{{#? this.descripcion}}",
    "solicitudServicio": {
      "id" : "{{#? this.solicitudServicio.id}}"
    }
  }
}
}