{
    "status" : true,
    "message" : { 
		"code" : "{{#? message.code}}",
		"text" : "{{#? message.text}}"
	},    "data" :{
      "id" : "{{#? bloqueHorario.id}}",
      "descripcion" : "{{#? bloqueHorario.descripcion}}",
      "horaInicio" : "{{#? bloqueHorario.horaInicio}}",
      "horaFinal" : "{{#? bloqueHorario.horaFinal}}"
  }
  }