{
  "status" : true,
  "message" : { 
  "code" : "{{#? message.code}}",
  "text" : "{{#? message.text}}"
},  "data" : {
  "promSolicitud" : "{{#? objeto.promSolicitud}}",
  "segundosSol" : "{{#? objeto.segundosSol}}",
  "promRevision" : "{{#? objeto.promRevision}}",
  "segundosRev" : "{{#? objeto.segundosRev}}",
  "promReparacion" :"{{#? objeto.promReparacion}}",
  "segundosRep" : "{{#? objeto.segundosRep}}"
  }
}