{
  "status" : true,
  "message" : { 
  "code" : "{{#? message.code}}",
  "text" : "{{#? message.text}}"
  },  
  "data" : {
    "{{#each ordenServicio}}": {
      "id" : "{{#? this.id}}",
      "estatus" : "{{#? this.estatus}}",
      "fechaRespuestaCliente" : "{{#? this.fechaRespuestaCliente}}",
      "fechaFinalizacion" : "{{#? this.fechaFinalizacion}}",
      "fechaEntrega" : "{{#? this.fechaEntrega}}",
      "fechaRespuestaReclamo" : "{{#? this.fechaRespuestaReclamo}}",
      "fechaFinalizacionReclamo" : "{{#? this.fechaFinalizacionReclamo}}",
      "fechaEntregaReclamo" : "{{#? this.fechaEntregaReclamo}}",
      "puntaje" : "{{#? this.puntaje}}",
      "comentario" : "{{#? this.comentario}}",
      "usuario" : {
        "id" : "{{#? this.usuario.id}}",
        "nombre" : "{{#? this.usuario.nombre}}",
        "apellido" : "{{#? this.usuario.apellido}}",
        "correo" : "{{#? this.usuario.correo}}"
      },
      "solicitudServicio": {
        "id" : "{{#? this.solicitudServicio.id}}",
        "descripcion" : "{{#? this.solicitudServicio.descripcion}}",
        "motivoRechazo" : "{{#? this.solicitudServicio.motivoRechazo}}",
        "fechaCreacion" : "{{#? this.solicitudServicio.fechaCreacion}}",
        "fechaRespuesta" : "{{#? this.solicitudServicio.fechaRespuesta}}",
        "fechaRevisado" : "{{#? this.solicitudServicio.fechaRevisado}}",
        "fechaGeneracionPresupuesto" : "{{#? this.solicitudServicio.fechaGeneracionPresupuesto}}",
        "presupuesto" : "{{#? this.solicitudServicio.presupuesto}}",
        "estatusPresupuesto" : "{{#? this.solicitudServicio.estatusPresupuesto}}",
        "estatus" : "{{#? this.solicitudServicio.estatus}}",
        "revision":{
          "id" : "{{#? this.solicitudServicio.revision.id}}",
          "costo" : "{{#? this.solicitudServicio.revision.costo}}",
          "diagnostico" : "{{#? this.solicitudServicio.revision.diagnostico}}",
          "estatusEquipo" : "{{#? this.solicitudServicio.revision.estatusEquipo}}"
          },
        "usuario" : {
          "id" : "{{#? this.solicitudServicio.usuario.id}}",
          "nombre" : "{{#? this.solicitudServicio.usuario.nombre}}",
          "apellido" : "{{#? this.solicitudServicio.usuario.apellido}}",
          "correo" : "{{#? this.solicitudServicio.usuario.correo}}"
          },
        "modeloEquipo": {
          "id" : "{{#? this.solicitudServicio.modeloEquipo.id}}",
          "nombre" : "{{#? this.solicitudServicio.modeloEquipo.nombre}}",
          "marca" : {
            "id" : "{{#? this.solicitudServicio.modeloEquipo.marca.id}}",
            "nombre" : "{{#? this.solicitudServicio.modeloEquipo.marca.nombre}}"
            }
          },
        "catalogoServicio": {
          "id" : "{{#? this.solicitudServicio.catalogoServicio.id}}",
          "descripcion" : "{{#? this.solicitudServicio.catalogoServicio.descripcion}}"
          },
          "promocion": {
            "id" : "{{#? this.solicitudServicio.promocion.id}}",
            "nombre" : "{{#? this.solicitudServicio.promocion.nombre}}",
            "descripcion" : "{{#? this.solicitudServicio.promocion.descripcion}}",
            "fechaInicio" : "{{#? this.solicitudServicio.promocion.fechaInicio}}",
            "fechaExpiracion" : "{{#? this.solicitudServicio.promocion.fechaExpiracion}}",
            "urlImagen": "{{#? this.solicitudServicio.promocion.urlImagen}}",
            "descuento" : {
              "id" : "{{#? this.solicitudServicio.promocion.descuento.id}}",
              "nombre" : "{{#? this.solicitudServicio.promocion.descuento.nombre}}",
              "porcentaje": "{{#? this.solicitudServicio.promocion.descuento.porcentaje}}"
            }
          }
      },
      "calificacionesServicio" : {
        "{{#each this.calificacionesServicio}}" : {
          "preguntaCalificacion" : {
            "id":"{{#? this.preguntaCalificacion.id}}",
            "descripcion": "{{#? this.preguntaCalificacion.descripcion}}"
          },          
        "respuesta": "{{#? this.respuesta}}"
        }
      }
    }
  }
}
