{
  "status" : true,
  "message" : { 
  "code" : "{{#? message.code}}",
  "text" : "{{#? message.text}}"
  },
  "data" : {
    "id" : "{{#? ordenServicio.id}}",
    "estatus" : "{{#? ordenServicio.estatus}}",
    "fechaRespuestaCliente" : "{{#? ordenServicio.fechaRespuestaCliente}}",
    "fechaFinalizacion" : "{{#? ordenServicio.fechaFinalizacion}}",
    "fechaEntrega" : "{{#? ordenServicio.fechaEntrega}}",
    "fechaRespuestaReclamo" : "{{#? ordenServicio.fechaRespuestaReclamo}}",
    "fechaFinalizacionReclamo" : "{{#? ordenServicio.fechaFinalizacionReclamo}}",
    "fechaEntregaReclamo" : "{{#? ordenServicio.fechaEntregaReclamo}}",
    "puntaje" : "{{#? ordenServicio.puntaje}}",
    "comentario" :"{{#? ordenServicio.comentario}}",
    "usuario" : {
      "id" : "{{#? ordenServicio.usuario.id}}",
      "nombre" : "{{#? ordenServicio.usuario.nombre}}",
      "apellido" : "{{#? ordenServicio.usuario.apellido}}",
      "correo" : "{{#? ordenServicio.usuario.correo}}"
    },
    "solicitudServicio": {
      "id" : "{{#? ordenServicio.solicitudServicio.id}}",
      "descripcion" : "{{#? ordenServicio.solicitudServicio.descripcion}}",
      "motivoRechazo" : "{{#? ordenServicio.solicitudServicio.motivoRechazo}}",
      "fechaCreacion" : "{{ordenServicio.solicitudServicio.fechaCreacion}}",
      "fechaRespuesta" : "{{#? ordenServicio.solicitudServicio.fechaRespuesta}}",
      "fechaRevisado" : "{{#? ordenServicio.solicitudServicio.fechaRevisado}}",
      "fechaGeneracionPresupuesto" : "{{#? ordenServicio.solicitudServicio.fechaGeneracionPresupuesto}}",
      "presupuesto" : "{{#? ordenServicio.solicitudServicio.presupuesto}}",
      "estatusPresupuesto" : "{{#? ordenServicio.solicitudServicio.estatusPresupuesto}}",
      "estatus" : "{{#? ordenServicio.solicitudServicio.estatus}}",
      "revision":{
        "id" : "{{#? ordenServicio.solicitudServicio.revision.id}}",
        "costo" : "{{#? ordenServicio.solicitudServicio.revision.costo}}",
        "diagnostico" : "{{#? ordenServicio.solicitudServicio.revision.diagnostico}}",
        "estatusEquipo" : "{{#? ordenServicio.solicitudServicio.revision.estatusEquipo}}",
        "horaRevision" : "{{#? ordenServicio.solicitudServicio.agenda.bloqueHorario.horaInicio}}",
        "fechaRevision" : "{{#? ordenServicio.solicitudServicio.agenda.fechaActividad}}"
        }
      ,
      "usuario" : {
        "id" : "{{#? ordenServicio.solicitudServicio.usuario.id}}",
        "nombre" : "{{#? ordenServicio.solicitudServicio.usuario.nombre}}",
        "apellido" : "{{#? ordenServicio.solicitudServicio.usuario.apellido}}",
        "correo" : "{{#? ordenServicio.solicitudServicio.usuario.correo}}"
      },
      "modeloEquipo": {
        "id" : "{{#? ordenServicio.solicitudServicio.modeloEquipo.id}}",
        "nombre" : "{{#? ordenServicio.solicitudServicio.modeloEquipo.nombre}}",
        "marca" : {
          "id" : "{{#? ordenServicio.solicitudServicio.modeloEquipo.marca.id}}",
          "nombre" : "{{#? ordenServicio.solicitudServicio.modeloEquipo.marca.nombre}}"
        }
      },
      "catalogoServicio": {
        "id" : "{{#? ordenServicio.solicitudServicio.catalogoServicio.id}}",
        "descripcion" : "{{#? ordenServicio.solicitudServicio.catalogoServicio.descripcion}}"
      },
      "promocion": {
        "id" : "{{#? ordenServicio.solicitudServicio.promocion.id}}",
        "nombre" : "{{#? ordenServicio.solicitudServicio.promocion.nombre}}",
        "descripcion" : "{{#? ordenServicio.solicitudServicio.promocion.descripcion}}",
        "fechaInicio" : "{{#? ordenServicio.solicitudServicio.promocion.fechaInicio}}",
        "fechaExpiracion" : "{{#? ordenServicio.solicitudServicio.promocion.fechaExpiracion}}",
        "urlImagen": "{{#? ordenServicio.solicitudServicio.promocion.urlImagen}}",
        "descuento" : {
          "id" : "{{#? ordenServicio.solicitudServicio.promocion.descuento.id}}",
          "nombre" : "{{#? ordenServicio.solicitudServicio.promocion.descuento.nombre}}",
          "porcentaje": "{{#? ordenServicio.solicitudServicio.promocion.descuento.porcentaje}}"
        }
      }
    },
    "actividades": {
      "{{#each ordenServicio.actividades}}" : {
        "id" : "{{#? this.id}}",
        "nombre" : "{{#? this.nombre}}",
        "descripcion" : "{{#? this.descripcion}}",
        "costo" : "{{#? this.costo}}"
      }
    },
    "calificacionesServicio":{
      "{{#each ordenServicio.calificacionesServicio}}" : {
        "PreguntaCalificacion": {
          "id": "{{#? this.preguntaCalificacion.id}}",
          "descripcion": "{{#? this.preguntaCalificacion.descripcion}}"
        },
        "respuesta": "{{#? this.respuesta}}"
      }
    },
    "agendas": {
      "{{#each ordenServicio.agendas}}" : {
        "id": "{{#? this.id}}",
        "fechaActividad": "{{#? this.fechaActividad}}",
        "descripcion": "{{#? this.descripcion}}",
        "estatus": "{{#? this.estatus}}",
        "bloqueHorario": {
          "id" : "{{#? this.bloqueHorario.id}}",
          "descripcion" : "{{#? this.bloqueHorario.descripcion}}",
          "horaInicio" : "{{#? this.bloqueHorario.horaInicio}}",
          "horaFinal" : "{{#? this.bloqueHorario.horaFinal}}"
        },
        "usuario" : {
          "id" : "{{#? this.usuario.id}}",
          "nombre" : "{{#? this.usuario.nombre}}",
          "apellido" : "{{#? this.usuario.apellido}}",
          "correo" : "{{#? this.usuario.correo}}"
        },
        "actividad": {
          "id" : "{{#? this.actividad.id}}",
          "nombre" : "{{#? this.actvidad.nombre}}",
          "descripcion" : "{{#? this.actividad.descripcion}}",
          "costo" : "{{#? this.actividad.costo}}"
        }
      }
    }
  }
}