{
  "status" : true,
"message" : { 
"code" : "{{#? message.code}}",
"text" : "{{#? message.text}}"
},    "data" : {
  "{{#each tipoComentario}}": {
    "id" : "{{#? this.id}}",
    "nombre" : "{{#? this.nombre}}"
  }
}
}