{
  "status" : true,
  "message" : { 
  "code" : "{{#? message.code}}",
  "text" : "{{#? message.text}}"
},  "data" : {
   "{{#each garantia }}" : {
      "id" : "{{#? this.id}}",
     "fechaCreacion" : "{{#? this.createdAt}}",
     "fechaExpiracion" : "{{#? this.fechaExpiracion}}",
     "duracionGarantia" : {
      "id" : "{{#? this.duracionGarantia.id}}",
      "dia" : "{{#? this.duracionGarantia.dia}}"
     }, 
     "ordenServicio" : {
        "id" : "{{#? this.ordenServicio.id}}"
      }
    }
  }
}