{
    "status" : true,
    "message" : { 
		"code" : "{{#? message.code}}",
		"text" : "{{#? message.text}}"
	},  "data" : {
    "{{#each catalogoServicio}}": {
      "id" : "{{#? this.id}}",
      "descripcion" : "{{#? this.descripcion}}",
      "urlImagen" : "{{#? this.urlImagen}}",
      "tipoEquipo" : {
        "id" : "{{#? this.tipoEquipo.id}}",
        "nombre" : "{{#? this.tipoEquipo.nombre}}"
      },
      "tipoServicio" :  {
        "id" : "{{#? this.tipoServicio.id}}",
        "nombre" : "{{#? this.tipoServicio.nombre}}"
      },
      "actividades" : {
        "{{#each this.actividades}}" : {
          "id" : "{{#? this.id}}",
          "nombre" : "{{#? this.nombre}}",
          "descripcion" : "{{#? this.descripcion}}",
          "costo" : "{{#? this.costo}}"
        }
      },
      "promociones" : {
        "{{#each this.promociones}}" : {
          "id" : "{{#? this.id}}",
          "nombre" : "{{#? this.nombre}}",
          "descripcion" : "{{#? this.descripcion}}",
          "fechaInicio" : "{{#? this.fechaInicio}}",
          "fechaExpiracion" : "{{#? this.fechaExpiracion}}",
          "urlImagen": "{{#? this.urlImagen}}",
          "descuento" : {
            "id" : "{{#? this.descuento.id}}",
            "nombre" : "{{#? this.descuento.nombre}}",
            "porcentaje" : "{{#? this.descuento.porcentaje}}"
          }
        }
      }
    }
  }
}