{
  "status" : true,
  "message" : { 
    "code" : "{{#? message.code}}",
    "text" : "{{#? message.text}}"
  },
  "data" : {
    "id" : "{{#? motivoRechazo.id}}",
    "tipoRechazo" : "{{#? motivoRechazo.tipoRechazo}}",
    "descripcion" :"{{#? motivoRechazo.descripcion}}"
  }
}