{
      "status" : true,
    "message" : { 
		"code" : "{{#? message.code}}",
		"text" : "{{#? message.text}}"
	},    "data" : {
      "{{#each tipoIncidencia}}": {
        "id" : "{{#? this.id}}",
        "nombre" : "{{#? this.nombre}}"
      }
    }
  }