{
  "staticRoot":"public",
  "defaultPlaceholderImage": "public/img/defaults/placeholder.png",
  "defaultPlaceholderAvatar": "public/img/defaults/placeholder-avatar.jpg",
  "defaults": "img/defaults",
  "categoriaTipoEquipo": "img/catEquipo",
  "marca": "img/marca",
  "usuario": "img/avatar",
  "catalogoServicio": "img/catalogo",
  "empresa": "img/empresa",
  "carrusel": "img/carrusel",
  "tipoEquipo": "img/tipoEquipo",
  "caracteristicaEmpresa": "img/caracteristicaEmpresa",
  "promocion": "img/promocion",
  "plantillaNotificacion": "img/notificacion",
  "descargaApp": "img/descargaApp"
}