{
    "status" : true,
    "message" : { 
		  "code" : "{{#? message.code}}",
		  "text" : "{{#? message.text}}"
    },  
    "data" : {
    "id" : "{{#? tipoEquipo.id}}",
    "nombre" : "{{#? tipoEquipo.nombre}}",
    "urlImagen" :"{{#? categoriaTipoEquipo.urlImagen}}",
    "categoriaTipoEquipo" : {
      "id" :"{{#? tipoEquipo.categoriaTipoEquipo.id}}",
      "nombre" :"{{#? tipoEquipo.categoriaTipoEquipo.nombre}}"
    },
    "modelosEquipo" : {
      "{{#each tipoEquipo.modelosEquipo}}" : {
          "id" : "{{#? this.id}}",
          "nombre" : "{{#? this.nombre}}"
      }
    }
  }
}