{
    "status" : true,
    "message" : { 
		"code" : "{{#? message.code}}",
		"text" : "{{#? message.text}}"
	},  "data" : {
    "{{#each permiso}}": {
      "id" : "{{#? this.id}}",
      "nombre" : "{{#? this.nombre}}"
    }
  }
}