{
    "status" : true,
    "message" : { 
		"code" : "{{#? message.code}}",
		"text" : "{{#? message.text}}"
	},  "data" : {
    "{{#each modeloEquipo }}" : {
      "id" : "{{#? this.id}}",
      "nombre" : "{{#? this.nombre}}",
      "tipoEquipo" : {
        "id" : "{{#? this.tipoEquipo.id}}",
        "nombre" : "{{#? this.tipoEquipo.nombre}}"
      },
      "marca" : {
        "id" : "{{#? this.marca.id}}",
        "nombre" : "{{#? this.marca.nombre}}"
      }
    }
  }
}