{
    "status" : true,
    "message" : { 
		"code" : "{{#? message.code}}",
		"text" : "{{#? message.text}}"
	},  "data" : {
    "{{#each usuario}}": {
      "id" : "{{#? this.id}}",
      "nombre" : "{{#? this.nombre}}",
      "apellido" : "{{#? this.apellido}}",
      "correo" : "{{#? this.correo}}",
      "direccion" : "{{#? this.direccion}}",
      "telefono" : "{{#? this.telefono}}",
      "fechaNacimiento" : "{{#? this.fechaNacimiento}}",
      "sexo" : "{{#? this.sexo}}",
      "urlFoto" : "{{#? this.urlFoto}}",
      "documentoIdentidad" : "{{#? this.documentoIdentidad}}"
    }
  }
  
}
