{
    "status" : true,
    "message" : { 
		"code" : "{{#? message.code}}",
		"text" : "{{#? message.text}}"
	},  "data" : {
    "id" : "{{#? usuario.id}}",
    "nombre" : "{{#? usuario.nombre}}",
    "apellido" : "{{#? usuario.apellido}}",
    "correo" : "{{#? usuario.correo}}",
    "direccion" : "{{#? usuario.direccion}}",
    "telefono" : "{{#? usuario.telefono}}",
    "fechaNacimiento" : "{{#? usuario.fechaNacimiento}}",
    "sexo" : "{{#? usuario.sexo}}",
    "urlFoto" : "{{#? usuario.urlFoto}}",
    "documentoIdentidad" : "{{#? usuario.documentoIdentidad}}",
    "rol" : {
      "id" :"{{#? usuario.rol.id}}",
      "nombre" :"{{#? usuario.rol.nombre}}",
      "tipoRol" : "{{#? usuario.rol.tipoRol}}"
    },
    "token": "{{#? token}}"
  }
}
